ISO-10303-21;
HEADER;
/* Generated by software containing ST-Developer
 * from STEP Tools, Inc. (www.steptools.com) 
 */

FILE_DESCRIPTION(
/* description */ (''),
/* implementation_level */ '2;1');

FILE_NAME(
/* name */ 'C:/Users/colin/Desktop/Spiro/CAD/CalibrationAdapter.step',
/* time_stamp */ '2018-12-14T13:28:23-05:00',
/* author */ ('felixdesourdy@gmail.com'),
/* organization */ (''),
/* preprocessor_version */ 'ST-DEVELOPER v17.2',
/* originating_system */ 'Autodesk Translation Framework v7.6.0.251',
/* authorisation */ '');

FILE_SCHEMA (('AUTOMOTIVE_DESIGN { 1 0 10303 214 3 1 1 }'));
ENDSEC;

DATA;
#10=MECHANICAL_DESIGN_GEOMETRIC_PRESENTATION_REPRESENTATION('',(#13),#525);
#11=SHAPE_REPRESENTATION_RELATIONSHIP('SRR','None',#532,#12);
#12=ADVANCED_BREP_SHAPE_REPRESENTATION('',(#14),#524);
#13=STYLED_ITEM('',(#541),#14);
#14=MANIFOLD_SOLID_BREP('Body5',#249);
#15=TOROIDAL_SURFACE('',#273,41.2178828294234,25.);
#16=TOROIDAL_SURFACE('',#279,28.1051158014768,15.);
#17=LINE('',#434,#25);
#18=LINE('',#438,#26);
#19=LINE('',#448,#27);
#20=LINE('',#471,#28);
#21=LINE('',#477,#29);
#22=LINE('',#517,#30);
#23=LINE('',#519,#31);
#24=LINE('',#521,#32);
#25=VECTOR('',#319,24.9);
#26=VECTOR('',#324,25.1);
#27=VECTOR('',#337,14.3);
#28=VECTOR('',#364,24.9);
#29=VECTOR('',#371,14.3);
#30=VECTOR('',#386,25.1);
#31=VECTOR('',#389,14.3);
#32=VECTOR('',#392,25.1);
#33=CONICAL_SURFACE('',#268,27.7396994727994,0.328378637791969);
#34=CONICAL_SURFACE('',#271,28.0999625007031,0.00499995833395833);
#35=CONICAL_SURFACE('',#277,17.2959264755585,0.0521181135636478);
#36=CONICAL_SURFACE('',#287,24.9,0.328378637791969);
#37=CONICAL_SURFACE('',#291,14.3,0.0521181135636478);
#38=CONICAL_SURFACE('',#298,25.1,0.00499995833395833);
#39=CONICAL_SURFACE('',#301,14.3,1.51867821323125);
#40=CONICAL_SURFACE('',#302,25.1,1.56579636846094);
#41=FACE_OUTER_BOUND('',#53,.T.);
#42=FACE_OUTER_BOUND('',#54,.T.);
#43=FACE_OUTER_BOUND('',#55,.T.);
#44=FACE_OUTER_BOUND('',#56,.T.);
#45=FACE_OUTER_BOUND('',#57,.T.);
#46=FACE_OUTER_BOUND('',#58,.T.);
#47=FACE_OUTER_BOUND('',#59,.T.);
#48=FACE_OUTER_BOUND('',#60,.T.);
#49=FACE_OUTER_BOUND('',#61,.T.);
#50=FACE_OUTER_BOUND('',#62,.T.);
#51=FACE_OUTER_BOUND('',#63,.T.);
#52=FACE_OUTER_BOUND('',#64,.T.);
#53=EDGE_LOOP('',(#159,#160,#161,#162,#163,#164));
#54=EDGE_LOOP('',(#165,#166,#167,#168,#169,#170));
#55=EDGE_LOOP('',(#171,#172,#173,#174,#175));
#56=EDGE_LOOP('',(#176,#177,#178,#179,#180,#181));
#57=EDGE_LOOP('',(#182,#183,#184,#185,#186));
#58=EDGE_LOOP('',(#187,#188,#189,#190,#191,#192,#193,#194));
#59=EDGE_LOOP('',(#195,#196,#197,#198,#199,#200,#201,#202));
#60=EDGE_LOOP('',(#203,#204,#205,#206,#207,#208,#209));
#61=EDGE_LOOP('',(#210,#211,#212,#213,#214,#215,#216,#217));
#62=EDGE_LOOP('',(#218,#219,#220,#221,#222,#223,#224));
#63=EDGE_LOOP('',(#225,#226,#227,#228,#229));
#64=EDGE_LOOP('',(#230,#231,#232,#233,#234));
#65=CIRCLE('',#263,27.9179047362174);
#66=CIRCLE('',#264,25.);
#67=CIRCLE('',#265,26.5823795036865);
#68=CIRCLE('',#266,26.5823795036865);
#69=CIRCLE('',#267,27.9179047362174);
#70=CIRCLE('',#269,17.553720556095);
#71=CIRCLE('',#270,17.553720556095);
#72=CIRCLE('',#272,28.0999625007031);
#73=CIRCLE('',#274,16.2518288664356);
#74=CIRCLE('',#275,25.);
#75=CIRCLE('',#276,16.2518288664356);
#76=CIRCLE('',#278,17.2959264755585);
#77=CIRCLE('',#280,13.1254834236841);
#78=CIRCLE('',#281,13.1254834236841);
#79=CIRCLE('',#282,15.);
#80=CIRCLE('',#283,13.9066184374798);
#81=CIRCLE('',#284,13.9066184374798);
#82=CIRCLE('',#285,13.9066184374798);
#83=CIRCLE('',#286,13.1254834236841);
#84=CIRCLE('',#288,24.1109182028776);
#85=CIRCLE('',#289,24.1109182028776);
#86=CIRCLE('',#290,24.1109182028776);
#87=CIRCLE('',#292,14.3);
#88=CIRCLE('',#293,14.3);
#89=CIRCLE('',#294,24.9122333423961);
#90=CIRCLE('',#295,15.);
#91=CIRCLE('',#296,24.9122333423961);
#92=CIRCLE('',#297,24.9122333423961);
#93=CIRCLE('',#299,25.1);
#94=CIRCLE('',#300,25.1);
#95=VERTEX_POINT('',#421);
#96=VERTEX_POINT('',#422);
#97=VERTEX_POINT('',#424);
#98=VERTEX_POINT('',#426);
#99=VERTEX_POINT('',#431);
#100=VERTEX_POINT('',#432);
#101=VERTEX_POINT('',#437);
#102=VERTEX_POINT('',#441);
#103=VERTEX_POINT('',#442);
#104=VERTEX_POINT('',#447);
#105=VERTEX_POINT('',#451);
#106=VERTEX_POINT('',#452);
#107=VERTEX_POINT('',#454);
#108=VERTEX_POINT('',#456);
#109=VERTEX_POINT('',#458);
#110=VERTEX_POINT('',#460);
#111=VERTEX_POINT('',#465);
#112=VERTEX_POINT('',#466);
#113=VERTEX_POINT('',#468);
#114=VERTEX_POINT('',#473);
#115=VERTEX_POINT('',#474);
#116=VERTEX_POINT('',#505);
#117=VERTEX_POINT('',#506);
#118=VERTEX_POINT('',#509);
#119=VERTEX_POINT('',#513);
#120=VERTEX_POINT('',#514);
#121=EDGE_CURVE('',#95,#96,#65,.T.);
#122=EDGE_CURVE('',#96,#97,#66,.T.);
#123=EDGE_CURVE('',#97,#98,#67,.T.);
#124=EDGE_CURVE('',#98,#97,#68,.T.);
#125=EDGE_CURVE('',#96,#95,#69,.T.);
#126=EDGE_CURVE('',#99,#100,#70,.T.);
#127=EDGE_CURVE('',#99,#98,#17,.T.);
#128=EDGE_CURVE('',#100,#99,#71,.T.);
#129=EDGE_CURVE('',#95,#101,#18,.T.);
#130=EDGE_CURVE('',#101,#101,#72,.T.);
#131=EDGE_CURVE('',#102,#103,#73,.T.);
#132=EDGE_CURVE('',#103,#100,#74,.T.);
#133=EDGE_CURVE('',#103,#102,#75,.T.);
#134=EDGE_CURVE('',#102,#104,#19,.T.);
#135=EDGE_CURVE('',#104,#104,#76,.T.);
#136=EDGE_CURVE('',#105,#106,#77,.T.);
#137=EDGE_CURVE('',#106,#107,#78,.T.);
#138=EDGE_CURVE('',#107,#108,#79,.T.);
#139=EDGE_CURVE('',#108,#109,#80,.T.);
#140=EDGE_CURVE('',#109,#110,#81,.T.);
#141=EDGE_CURVE('',#110,#108,#82,.T.);
#142=EDGE_CURVE('',#107,#105,#83,.T.);
#143=EDGE_CURVE('',#111,#112,#84,.T.);
#144=EDGE_CURVE('',#113,#111,#85,.T.);
#145=EDGE_CURVE('',#112,#113,#86,.T.);
#146=EDGE_CURVE('',#112,#109,#20,.T.);
#147=EDGE_CURVE('',#114,#115,#87,.T.);
#148=EDGE_CURVE('',#115,#114,#88,.T.);
#149=EDGE_CURVE('',#115,#106,#21,.T.);
#150=EDGE_CURVE('',#116,#117,#89,.T.);
#151=EDGE_CURVE('',#117,#113,#90,.T.);
#152=EDGE_CURVE('',#117,#118,#91,.T.);
#153=EDGE_CURVE('',#118,#116,#92,.T.);
#154=EDGE_CURVE('',#119,#120,#93,.T.);
#155=EDGE_CURVE('',#120,#119,#94,.T.);
#156=EDGE_CURVE('',#120,#118,#22,.T.);
#157=EDGE_CURVE('',#104,#115,#23,.T.);
#158=EDGE_CURVE('',#101,#120,#24,.T.);
#159=ORIENTED_EDGE('',*,*,#121,.T.);
#160=ORIENTED_EDGE('',*,*,#122,.T.);
#161=ORIENTED_EDGE('',*,*,#123,.T.);
#162=ORIENTED_EDGE('',*,*,#124,.T.);
#163=ORIENTED_EDGE('',*,*,#122,.F.);
#164=ORIENTED_EDGE('',*,*,#125,.T.);
#165=ORIENTED_EDGE('',*,*,#126,.F.);
#166=ORIENTED_EDGE('',*,*,#127,.T.);
#167=ORIENTED_EDGE('',*,*,#123,.F.);
#168=ORIENTED_EDGE('',*,*,#124,.F.);
#169=ORIENTED_EDGE('',*,*,#127,.F.);
#170=ORIENTED_EDGE('',*,*,#128,.F.);
#171=ORIENTED_EDGE('',*,*,#121,.F.);
#172=ORIENTED_EDGE('',*,*,#129,.T.);
#173=ORIENTED_EDGE('',*,*,#130,.T.);
#174=ORIENTED_EDGE('',*,*,#129,.F.);
#175=ORIENTED_EDGE('',*,*,#125,.F.);
#176=ORIENTED_EDGE('',*,*,#131,.T.);
#177=ORIENTED_EDGE('',*,*,#132,.T.);
#178=ORIENTED_EDGE('',*,*,#128,.T.);
#179=ORIENTED_EDGE('',*,*,#126,.T.);
#180=ORIENTED_EDGE('',*,*,#132,.F.);
#181=ORIENTED_EDGE('',*,*,#133,.T.);
#182=ORIENTED_EDGE('',*,*,#131,.F.);
#183=ORIENTED_EDGE('',*,*,#134,.T.);
#184=ORIENTED_EDGE('',*,*,#135,.T.);
#185=ORIENTED_EDGE('',*,*,#134,.F.);
#186=ORIENTED_EDGE('',*,*,#133,.F.);
#187=ORIENTED_EDGE('',*,*,#136,.T.);
#188=ORIENTED_EDGE('',*,*,#137,.T.);
#189=ORIENTED_EDGE('',*,*,#138,.T.);
#190=ORIENTED_EDGE('',*,*,#139,.T.);
#191=ORIENTED_EDGE('',*,*,#140,.T.);
#192=ORIENTED_EDGE('',*,*,#141,.T.);
#193=ORIENTED_EDGE('',*,*,#138,.F.);
#194=ORIENTED_EDGE('',*,*,#142,.T.);
#195=ORIENTED_EDGE('',*,*,#143,.F.);
#196=ORIENTED_EDGE('',*,*,#144,.F.);
#197=ORIENTED_EDGE('',*,*,#145,.F.);
#198=ORIENTED_EDGE('',*,*,#146,.T.);
#199=ORIENTED_EDGE('',*,*,#139,.F.);
#200=ORIENTED_EDGE('',*,*,#141,.F.);
#201=ORIENTED_EDGE('',*,*,#140,.F.);
#202=ORIENTED_EDGE('',*,*,#146,.F.);
#203=ORIENTED_EDGE('',*,*,#147,.F.);
#204=ORIENTED_EDGE('',*,*,#148,.F.);
#205=ORIENTED_EDGE('',*,*,#149,.T.);
#206=ORIENTED_EDGE('',*,*,#136,.F.);
#207=ORIENTED_EDGE('',*,*,#142,.F.);
#208=ORIENTED_EDGE('',*,*,#137,.F.);
#209=ORIENTED_EDGE('',*,*,#149,.F.);
#210=ORIENTED_EDGE('',*,*,#150,.T.);
#211=ORIENTED_EDGE('',*,*,#151,.T.);
#212=ORIENTED_EDGE('',*,*,#144,.T.);
#213=ORIENTED_EDGE('',*,*,#143,.T.);
#214=ORIENTED_EDGE('',*,*,#145,.T.);
#215=ORIENTED_EDGE('',*,*,#151,.F.);
#216=ORIENTED_EDGE('',*,*,#152,.T.);
#217=ORIENTED_EDGE('',*,*,#153,.T.);
#218=ORIENTED_EDGE('',*,*,#154,.F.);
#219=ORIENTED_EDGE('',*,*,#155,.F.);
#220=ORIENTED_EDGE('',*,*,#156,.T.);
#221=ORIENTED_EDGE('',*,*,#152,.F.);
#222=ORIENTED_EDGE('',*,*,#150,.F.);
#223=ORIENTED_EDGE('',*,*,#153,.F.);
#224=ORIENTED_EDGE('',*,*,#156,.F.);
#225=ORIENTED_EDGE('',*,*,#135,.F.);
#226=ORIENTED_EDGE('',*,*,#157,.T.);
#227=ORIENTED_EDGE('',*,*,#148,.T.);
#228=ORIENTED_EDGE('',*,*,#147,.T.);
#229=ORIENTED_EDGE('',*,*,#157,.F.);
#230=ORIENTED_EDGE('',*,*,#130,.F.);
#231=ORIENTED_EDGE('',*,*,#158,.T.);
#232=ORIENTED_EDGE('',*,*,#155,.T.);
#233=ORIENTED_EDGE('',*,*,#154,.T.);
#234=ORIENTED_EDGE('',*,*,#158,.F.);
#235=(
BOUNDED_SURFACE()
B_SPLINE_SURFACE(2,2,((#394,#395,#396,#397,#398,#399,#400,#401,#402),(#403,
#404,#405,#406,#407,#408,#409,#410,#411),(#412,#413,#414,#415,#416,#417,
#418,#419,#420)),.UNSPECIFIED.,.F.,.T.,.F.)
B_SPLINE_SURFACE_WITH_KNOTS((3,3),(3,2,2,2,3),(-0.328378637791969,-0.00499995833395838),
(-3.14159265358979,-1.5707963267949,0.,1.5707963267949,3.14159265358979),
 .UNSPECIFIED.)
GEOMETRIC_REPRESENTATION_ITEM()
RATIONAL_B_SPLINE_SURFACE(((1.,0.707106781186548,1.,0.707106781186548,1.,
0.707106781186548,1.,0.707106781186548,1.),(0.986956732219456,0.697883798090093,
0.986956732219456,0.697883798090093,0.986956732219456,0.697883798090093,
0.986956732219456,0.697883798090093,0.986956732219456),(1.,0.707106781186548,
1.,0.707106781186548,1.,0.707106781186548,1.,0.707106781186548,1.)))
REPRESENTATION_ITEM('')
SURFACE()
);
#236=(
BOUNDED_SURFACE()
B_SPLINE_SURFACE(2,2,((#478,#479,#480,#481,#482,#483,#484,#485,#486),(#487,
#488,#489,#490,#491,#492,#493,#494,#495),(#496,#497,#498,#499,#500,#501,
#502,#503,#504)),.UNSPECIFIED.,.F.,.T.,.F.)
B_SPLINE_SURFACE_WITH_KNOTS((3,3),(3,2,2,2,3),(-0.32837863779197,-0.00499995833395921),
(-3.14159265358979,-1.5707963267949,0.,1.5707963267949,3.14159265358979),
 .UNSPECIFIED.)
GEOMETRIC_REPRESENTATION_ITEM()
RATIONAL_B_SPLINE_SURFACE(((1.,0.707106781186548,1.,0.707106781186548,1.,
0.707106781186548,1.,0.707106781186548,1.),(0.986956732219472,0.697883798090104,
0.986956732219472,0.697883798090104,0.986956732219472,0.697883798090104,
0.986956732219472,0.697883798090104,0.986956732219472),(1.,0.707106781186548,
1.,0.707106781186548,1.,0.707106781186548,1.,0.707106781186548,1.)))
REPRESENTATION_ITEM('')
SURFACE()
);
#237=ADVANCED_FACE('',(#41),#235,.F.);
#238=ADVANCED_FACE('',(#42),#33,.T.);
#239=ADVANCED_FACE('',(#43),#34,.T.);
#240=ADVANCED_FACE('',(#44),#15,.F.);
#241=ADVANCED_FACE('',(#45),#35,.T.);
#242=ADVANCED_FACE('',(#46),#16,.T.);
#243=ADVANCED_FACE('',(#47),#36,.F.);
#244=ADVANCED_FACE('',(#48),#37,.F.);
#245=ADVANCED_FACE('',(#49),#236,.T.);
#246=ADVANCED_FACE('',(#50),#38,.F.);
#247=ADVANCED_FACE('',(#51),#39,.T.);
#248=ADVANCED_FACE('',(#52),#40,.T.);
#249=CLOSED_SHELL('',(#237,#238,#239,#240,#241,#242,#243,#244,#245,#246,
#247,#248));
#250=DERIVED_UNIT_ELEMENT(#252,1.);
#251=DERIVED_UNIT_ELEMENT(#527,3.);
#252=(
MASS_UNIT()
NAMED_UNIT(*)
SI_UNIT(.KILO.,.GRAM.)
);
#253=DERIVED_UNIT((#250,#251));
#254=MEASURE_REPRESENTATION_ITEM('density measure',
POSITIVE_RATIO_MEASURE(7850.),#253);
#255=PROPERTY_DEFINITION_REPRESENTATION(#260,#257);
#256=PROPERTY_DEFINITION_REPRESENTATION(#261,#258);
#257=REPRESENTATION('material name',(#259),#524);
#258=REPRESENTATION('density',(#254),#524);
#259=DESCRIPTIVE_REPRESENTATION_ITEM('Steel','Steel');
#260=PROPERTY_DEFINITION('material property','material name',#534);
#261=PROPERTY_DEFINITION('material property','density of part',#534);
#262=AXIS2_PLACEMENT_3D('placement',#393,#303,#304);
#263=AXIS2_PLACEMENT_3D('',#423,#305,#306);
#264=AXIS2_PLACEMENT_3D('',#425,#307,#308);
#265=AXIS2_PLACEMENT_3D('',#427,#309,#310);
#266=AXIS2_PLACEMENT_3D('',#428,#311,#312);
#267=AXIS2_PLACEMENT_3D('',#429,#313,#314);
#268=AXIS2_PLACEMENT_3D('',#430,#315,#316);
#269=AXIS2_PLACEMENT_3D('',#433,#317,#318);
#270=AXIS2_PLACEMENT_3D('',#435,#320,#321);
#271=AXIS2_PLACEMENT_3D('',#436,#322,#323);
#272=AXIS2_PLACEMENT_3D('',#439,#325,#326);
#273=AXIS2_PLACEMENT_3D('',#440,#327,#328);
#274=AXIS2_PLACEMENT_3D('',#443,#329,#330);
#275=AXIS2_PLACEMENT_3D('',#444,#331,#332);
#276=AXIS2_PLACEMENT_3D('',#445,#333,#334);
#277=AXIS2_PLACEMENT_3D('',#446,#335,#336);
#278=AXIS2_PLACEMENT_3D('',#449,#338,#339);
#279=AXIS2_PLACEMENT_3D('',#450,#340,#341);
#280=AXIS2_PLACEMENT_3D('',#453,#342,#343);
#281=AXIS2_PLACEMENT_3D('',#455,#344,#345);
#282=AXIS2_PLACEMENT_3D('',#457,#346,#347);
#283=AXIS2_PLACEMENT_3D('',#459,#348,#349);
#284=AXIS2_PLACEMENT_3D('',#461,#350,#351);
#285=AXIS2_PLACEMENT_3D('',#462,#352,#353);
#286=AXIS2_PLACEMENT_3D('',#463,#354,#355);
#287=AXIS2_PLACEMENT_3D('',#464,#356,#357);
#288=AXIS2_PLACEMENT_3D('',#467,#358,#359);
#289=AXIS2_PLACEMENT_3D('',#469,#360,#361);
#290=AXIS2_PLACEMENT_3D('',#470,#362,#363);
#291=AXIS2_PLACEMENT_3D('',#472,#365,#366);
#292=AXIS2_PLACEMENT_3D('',#475,#367,#368);
#293=AXIS2_PLACEMENT_3D('',#476,#369,#370);
#294=AXIS2_PLACEMENT_3D('',#507,#372,#373);
#295=AXIS2_PLACEMENT_3D('',#508,#374,#375);
#296=AXIS2_PLACEMENT_3D('',#510,#376,#377);
#297=AXIS2_PLACEMENT_3D('',#511,#378,#379);
#298=AXIS2_PLACEMENT_3D('',#512,#380,#381);
#299=AXIS2_PLACEMENT_3D('',#515,#382,#383);
#300=AXIS2_PLACEMENT_3D('',#516,#384,#385);
#301=AXIS2_PLACEMENT_3D('',#518,#387,#388);
#302=AXIS2_PLACEMENT_3D('',#520,#390,#391);
#303=DIRECTION('axis',(0.,0.,1.));
#304=DIRECTION('refdir',(1.,0.,0.));
#305=DIRECTION('center_axis',(0.,1.,0.));
#306=DIRECTION('ref_axis',(1.,0.,-6.12323399573677E-17));
#307=DIRECTION('center_axis',(-1.,0.,-1.22464679914735E-16));
#308=DIRECTION('ref_axis',(-1.22464679914735E-16,0.,1.));
#309=DIRECTION('center_axis',(0.,-1.,0.));
#310=DIRECTION('ref_axis',(1.,0.,-6.12323399573677E-17));
#311=DIRECTION('center_axis',(0.,-1.,0.));
#312=DIRECTION('ref_axis',(1.,0.,-6.12323399573677E-17));
#313=DIRECTION('center_axis',(0.,1.,0.));
#314=DIRECTION('ref_axis',(1.,0.,-6.12323399573677E-17));
#315=DIRECTION('center_axis',(0.,-1.,0.));
#316=DIRECTION('ref_axis',(1.,0.,0.));
#317=DIRECTION('center_axis',(0.,1.,0.));
#318=DIRECTION('ref_axis',(1.,0.,-6.12323399573677E-17));
#319=DIRECTION('',(-0.322508725839362,-0.946566490933136,3.94959278796265E-17));
#320=DIRECTION('center_axis',(0.,1.,0.));
#321=DIRECTION('ref_axis',(1.,0.,-6.12323399573677E-17));
#322=DIRECTION('center_axis',(0.,-1.,0.));
#323=DIRECTION('ref_axis',(1.,0.,0.));
#324=DIRECTION('',(-0.00499993750117185,-0.99998750023437,6.12315745674693E-19));
#325=DIRECTION('center_axis',(0.,1.,0.));
#326=DIRECTION('ref_axis',(1.,0.,0.));
#327=DIRECTION('center_axis',(0.,-1.,0.));
#328=DIRECTION('ref_axis',(0.,0.,-1.));
#329=DIRECTION('center_axis',(0.,-1.,0.));
#330=DIRECTION('ref_axis',(1.,0.,6.12323399573676E-17));
#331=DIRECTION('center_axis',(-1.,0.,-1.22464679914735E-16));
#332=DIRECTION('ref_axis',(-1.22464679914735E-16,0.,1.));
#333=DIRECTION('center_axis',(0.,-1.,0.));
#334=DIRECTION('ref_axis',(1.,0.,6.12323399573676E-17));
#335=DIRECTION('center_axis',(0.,1.,0.));
#336=DIRECTION('ref_axis',(1.,0.,0.));
#337=DIRECTION('',(-0.0520945220487542,0.998642158519513,-6.3797389680118E-18));
#338=DIRECTION('center_axis',(0.,-1.,0.));
#339=DIRECTION('ref_axis',(1.,0.,0.));
#340=DIRECTION('center_axis',(0.,-1.,0.));
#341=DIRECTION('ref_axis',(0.,0.,-1.));
#342=DIRECTION('center_axis',(0.,1.,0.));
#343=DIRECTION('ref_axis',(-1.,0.,0.));
#344=DIRECTION('center_axis',(0.,1.,0.));
#345=DIRECTION('ref_axis',(-1.,0.,0.));
#346=DIRECTION('center_axis',(-1.,0.,-1.22464679914735E-16));
#347=DIRECTION('ref_axis',(-1.22464679914735E-16,0.,1.));
#348=DIRECTION('center_axis',(0.,-1.,0.));
#349=DIRECTION('ref_axis',(-1.,0.,1.22464679914735E-16));
#350=DIRECTION('center_axis',(0.,-1.,0.));
#351=DIRECTION('ref_axis',(-1.,0.,1.22464679914735E-16));
#352=DIRECTION('center_axis',(0.,-1.,0.));
#353=DIRECTION('ref_axis',(-1.,0.,1.22464679914735E-16));
#354=DIRECTION('center_axis',(0.,1.,0.));
#355=DIRECTION('ref_axis',(-1.,0.,0.));
#356=DIRECTION('center_axis',(0.,-1.,0.));
#357=DIRECTION('ref_axis',(1.,0.,0.));
#358=DIRECTION('center_axis',(0.,1.,0.));
#359=DIRECTION('ref_axis',(-1.,0.,1.22464679914735E-16));
#360=DIRECTION('center_axis',(0.,1.,0.));
#361=DIRECTION('ref_axis',(-1.,0.,1.22464679914735E-16));
#362=DIRECTION('center_axis',(0.,1.,0.));
#363=DIRECTION('ref_axis',(-1.,0.,1.22464679914735E-16));
#364=DIRECTION('',(0.322508725839362,0.946566490933136,-3.94959278796265E-17));
#365=DIRECTION('center_axis',(0.,1.,0.));
#366=DIRECTION('ref_axis',(1.,0.,0.));
#367=DIRECTION('center_axis',(0.,-1.,0.));
#368=DIRECTION('ref_axis',(1.,0.,0.));
#369=DIRECTION('center_axis',(0.,-1.,0.));
#370=DIRECTION('ref_axis',(1.,0.,0.));
#371=DIRECTION('',(0.0520945220487542,-0.998642158519513,6.3797389680118E-18));
#372=DIRECTION('center_axis',(0.,-1.,0.));
#373=DIRECTION('ref_axis',(-1.,0.,1.22464679914735E-16));
#374=DIRECTION('center_axis',(-1.,0.,-1.22464679914735E-16));
#375=DIRECTION('ref_axis',(-1.22464679914735E-16,0.,1.));
#376=DIRECTION('center_axis',(0.,-1.,0.));
#377=DIRECTION('ref_axis',(-1.,0.,1.22464679914735E-16));
#378=DIRECTION('center_axis',(0.,-1.,0.));
#379=DIRECTION('ref_axis',(-1.,0.,1.22464679914735E-16));
#380=DIRECTION('center_axis',(0.,-1.,0.));
#381=DIRECTION('ref_axis',(1.,0.,0.));
#382=DIRECTION('center_axis',(0.,1.,0.));
#383=DIRECTION('ref_axis',(1.,0.,0.));
#384=DIRECTION('center_axis',(0.,1.,0.));
#385=DIRECTION('ref_axis',(1.,0.,0.));
#386=DIRECTION('',(0.00499993750117185,0.99998750023437,-6.12315745674693E-19));
#387=DIRECTION('center_axis',(0.,-1.,0.));
#388=DIRECTION('ref_axis',(1.,0.,0.));
#389=DIRECTION('',(0.998642158519513,0.0520945220487542,-1.22298392292453E-16));
#390=DIRECTION('center_axis',(0.,1.,0.));
#391=DIRECTION('ref_axis',(1.,0.,0.));
#392=DIRECTION('',(0.99998750023437,-0.00499993750117185,1.22463149134938E-16));
#393=CARTESIAN_POINT('',(0.,0.,0.));
#394=CARTESIAN_POINT('Ctrl Pts',(0.,44.3642724181012,26.5823795036866));
#395=CARTESIAN_POINT('Ctrl Pts',(-26.5823795036865,44.3642724181012,26.5823795036865));
#396=CARTESIAN_POINT('Ctrl Pts',(-26.5823795036866,44.3642724181012,0.));
#397=CARTESIAN_POINT('Ctrl Pts',(-26.5823795036865,44.3642724181012,-26.5823795036865));
#398=CARTESIAN_POINT('Ctrl Pts',(0.,44.3642724181012,-26.5823795036866));
#399=CARTESIAN_POINT('Ctrl Pts',(26.5823795036865,44.3642724181012,-26.5823795036865));
#400=CARTESIAN_POINT('Ctrl Pts',(26.5823795036866,44.3642724181012,0.));
#401=CARTESIAN_POINT('Ctrl Pts',(26.5823795036865,44.3642724181012,26.5823795036865));
#402=CARTESIAN_POINT('Ctrl Pts',(0.,44.3642724181012,26.5823795036866));
#403=CARTESIAN_POINT('Ctrl Pts',(0.,40.504333508348,27.8975158322239));
#404=CARTESIAN_POINT('Ctrl Pts',(-27.8975158322239,40.504333508348,27.8975158322239));
#405=CARTESIAN_POINT('Ctrl Pts',(-27.8975158322239,40.504333508348,0.));
#406=CARTESIAN_POINT('Ctrl Pts',(-27.8975158322239,40.504333508348,-27.8975158322239));
#407=CARTESIAN_POINT('Ctrl Pts',(0.,40.504333508348,-27.8975158322239));
#408=CARTESIAN_POINT('Ctrl Pts',(27.8975158322239,40.504333508348,-27.8975158322239));
#409=CARTESIAN_POINT('Ctrl Pts',(27.8975158322239,40.504333508348,0.));
#410=CARTESIAN_POINT('Ctrl Pts',(27.8975158322239,40.504333508348,27.8975158322239));
#411=CARTESIAN_POINT('Ctrl Pts',(0.,40.504333508348,27.8975158322239));
#412=CARTESIAN_POINT('Ctrl Pts',(0.,36.4265527096465,27.9179047362174));
#413=CARTESIAN_POINT('Ctrl Pts',(-27.9179047362174,36.4265527096465,27.9179047362174));
#414=CARTESIAN_POINT('Ctrl Pts',(-27.9179047362174,36.4265527096465,0.));
#415=CARTESIAN_POINT('Ctrl Pts',(-27.9179047362174,36.4265527096465,-27.9179047362174));
#416=CARTESIAN_POINT('Ctrl Pts',(0.,36.4265527096465,-27.9179047362174));
#417=CARTESIAN_POINT('Ctrl Pts',(27.9179047362174,36.4265527096465,-27.9179047362174));
#418=CARTESIAN_POINT('Ctrl Pts',(27.9179047362174,36.4265527096465,0.));
#419=CARTESIAN_POINT('Ctrl Pts',(27.9179047362174,36.4265527096465,27.9179047362174));
#420=CARTESIAN_POINT('Ctrl Pts',(0.,36.4265527096465,27.9179047362174));
#421=CARTESIAN_POINT('',(-27.9179047362174,36.4265527096465,6.83791453482187E-15));
#422=CARTESIAN_POINT('',(-3.41895726741094E-15,36.4265527096465,27.9179047362174));
#423=CARTESIAN_POINT('Origin',(0.,36.4265527096465,1.70947863370547E-15));
#424=CARTESIAN_POINT('',(-3.25540259729098E-15,44.3642724181012,26.5823795036865));
#425=CARTESIAN_POINT('Origin',(-3.57378539037476E-16,36.3015542721172,2.91821723035814));
#426=CARTESIAN_POINT('',(-26.5823795036865,44.3642724181012,0.));
#427=CARTESIAN_POINT('Origin',(0.,44.3642724181012,1.62770129864549E-15));
#428=CARTESIAN_POINT('Origin',(0.,44.3642724181012,1.62770129864549E-15));
#429=CARTESIAN_POINT('Origin',(0.,36.4265527096465,1.70947863370547E-15));
#430=CARTESIAN_POINT('Origin',(0.,40.9675261775181,0.));
#431=CARTESIAN_POINT('',(-17.553720556095,70.863481069313,4.29942153842977E-15));
#432=CARTESIAN_POINT('',(-2.14971076921489E-15,70.863481069313,17.553720556095));
#433=CARTESIAN_POINT('Origin',(0.,70.863481069313,1.07485538460744E-15));
#434=CARTESIAN_POINT('',(-27.7396994727994,40.9675261775181,3.39713341686733E-15));
#435=CARTESIAN_POINT('Origin',(0.,70.863481069313,1.07485538460744E-15));
#436=CARTESIAN_POINT('Origin',(0.,0.0149998125035156,0.));
#437=CARTESIAN_POINT('',(-28.0999625007031,0.0149998125035156,3.44125291326467E-15));
#438=CARTESIAN_POINT('',(-28.0999625007031,0.0149998125035156,3.44125291326467E-15));
#439=CARTESIAN_POINT('Origin',(0.,0.0149998125035156,0.));
#440=CARTESIAN_POINT('Origin',(0.,78.926199215297,0.));
#441=CARTESIAN_POINT('',(-16.2518288664356,80.2285622665159,-3.98055004031418E-15));
#442=CARTESIAN_POINT('',(-1.99027502015709E-15,80.2285622665159,16.2518288664356));
#443=CARTESIAN_POINT('Origin',(0.,80.2285622665159,-9.95137510078546E-16));
#444=CARTESIAN_POINT('Origin',(-5.0477348274684E-15,78.926199215297,41.2178828294234));
#445=CARTESIAN_POINT('Origin',(0.,80.2285622665159,-9.95137510078546E-16));
#446=CARTESIAN_POINT('Origin',(0.,100.243716433854,0.));
#447=CARTESIAN_POINT('',(-17.2959264755585,100.243716433854,-2.11814009965807E-15));
#448=CARTESIAN_POINT('',(-17.2959264755585,100.243716433854,-2.11814009965807E-15));
#449=CARTESIAN_POINT('Origin',(0.,100.243716433854,0.));
#450=CARTESIAN_POINT('Origin',(0.,77.1033210081948,0.));
#451=CARTESIAN_POINT('',(13.1254834236841,77.8847388389261,-3.21481625241529E-15));
#452=CARTESIAN_POINT('',(-13.1254834236841,77.8847388389261,-1.60740812620764E-15));
#453=CARTESIAN_POINT('Origin',(0.,77.8847388389261,-1.60740812620764E-15));
#454=CARTESIAN_POINT('',(-1.60740812620764E-15,77.8847388389261,13.1254834236841));
#455=CARTESIAN_POINT('Origin',(0.,77.8847388389261,-1.60740812620764E-15));
#456=CARTESIAN_POINT('',(-1.70306957564232E-15,72.2656901206044,13.9066184374798));
#457=CARTESIAN_POINT('Origin',(-3.44188401059443E-15,77.1033210081948,28.1051158014768));
#458=CARTESIAN_POINT('',(-13.9066184374798,72.2656901206044,1.70306957564232E-15));
#459=CARTESIAN_POINT('Origin',(0.,72.2656901206044,0.));
#460=CARTESIAN_POINT('',(13.9066184374798,72.2656901206044,-2.46519032881566E-31));
#461=CARTESIAN_POINT('Origin',(0.,72.2656901206044,0.));
#462=CARTESIAN_POINT('Origin',(0.,72.2656901206044,0.));
#463=CARTESIAN_POINT('Origin',(0.,77.8847388389261,-1.60740812620764E-15));
#464=CARTESIAN_POINT('Origin',(0.,40.,0.));
#465=CARTESIAN_POINT('',(24.1109182028776,42.3159633458519,-5.90547176033155E-15));
#466=CARTESIAN_POINT('',(-24.1109182028776,42.3159633458519,2.95273588016577E-15));
#467=CARTESIAN_POINT('Origin',(0.,42.3159633458519,0.));
#468=CARTESIAN_POINT('',(-2.95273588016577E-15,42.3159633458519,24.1109182028776));
#469=CARTESIAN_POINT('Origin',(0.,42.3159633458519,0.));
#470=CARTESIAN_POINT('Origin',(0.,42.3159633458519,0.));
#471=CARTESIAN_POINT('',(-24.9,40.,3.04937052987691E-15));
#472=CARTESIAN_POINT('Origin',(0.,100.4,0.));
#473=CARTESIAN_POINT('',(14.3,100.4,0.));
#474=CARTESIAN_POINT('',(-14.3,100.4,-1.75124492278072E-15));
#475=CARTESIAN_POINT('Origin',(0.,100.4,0.));
#476=CARTESIAN_POINT('Origin',(0.,100.4,0.));
#477=CARTESIAN_POINT('',(-14.3,100.4,-1.75124492278072E-15));
#478=CARTESIAN_POINT('Ctrl Pts',(0.,42.3159633458519,24.1109182028776));
#479=CARTESIAN_POINT('Ctrl Pts',(-24.1109182028776,42.3159633458519,24.1109182028776));
#480=CARTESIAN_POINT('Ctrl Pts',(-24.1109182028776,42.3159633458519,0.));
#481=CARTESIAN_POINT('Ctrl Pts',(-24.1109182028776,42.3159633458519,-24.1109182028776));
#482=CARTESIAN_POINT('Ctrl Pts',(0.,42.3159633458519,-24.1109182028776));
#483=CARTESIAN_POINT('Ctrl Pts',(24.1109182028776,42.3159633458519,-24.1109182028776));
#484=CARTESIAN_POINT('Ctrl Pts',(24.1109182028776,42.3159633458519,0.));
#485=CARTESIAN_POINT('Ctrl Pts',(24.1109182028776,42.3159633458519,24.1109182028776));
#486=CARTESIAN_POINT('Ctrl Pts',(0.,42.3159633458519,24.1109182028776));
#487=CARTESIAN_POINT('Ctrl Pts',(0.,40.,24.9));
#488=CARTESIAN_POINT('Ctrl Pts',(-24.9,40.,24.9));
#489=CARTESIAN_POINT('Ctrl Pts',(-24.9,40.,0.));
#490=CARTESIAN_POINT('Ctrl Pts',(-24.9,40.,-24.9));
#491=CARTESIAN_POINT('Ctrl Pts',(0.,40.,-24.9));
#492=CARTESIAN_POINT('Ctrl Pts',(24.9,40.,-24.9));
#493=CARTESIAN_POINT('Ctrl Pts',(24.9,40.,0.));
#494=CARTESIAN_POINT('Ctrl Pts',(24.9,40.,24.9));
#495=CARTESIAN_POINT('Ctrl Pts',(0.,40.,24.9));
#496=CARTESIAN_POINT('Ctrl Pts',(0.,37.553331520779,24.9122333423961));
#497=CARTESIAN_POINT('Ctrl Pts',(-24.9122333423961,37.553331520779,24.9122333423961));
#498=CARTESIAN_POINT('Ctrl Pts',(-24.9122333423961,37.553331520779,0.));
#499=CARTESIAN_POINT('Ctrl Pts',(-24.9122333423961,37.553331520779,-24.9122333423961));
#500=CARTESIAN_POINT('Ctrl Pts',(0.,37.553331520779,-24.9122333423961));
#501=CARTESIAN_POINT('Ctrl Pts',(24.9122333423961,37.553331520779,-24.9122333423961));
#502=CARTESIAN_POINT('Ctrl Pts',(24.9122333423961,37.553331520779,0.));
#503=CARTESIAN_POINT('Ctrl Pts',(24.9122333423961,37.553331520779,24.9122333423961));
#504=CARTESIAN_POINT('Ctrl Pts',(0.,37.553331520779,24.9122333423961));
#505=CARTESIAN_POINT('',(24.9122333423961,37.553331520779,0.));
#506=CARTESIAN_POINT('',(-3.05086868223774E-15,37.553331520779,24.9122333423961));
#507=CARTESIAN_POINT('Origin',(0.,37.553331520779,-2.46519032881566E-31));
#508=CARTESIAN_POINT('Origin',(-1.21392144521366E-15,37.4783324582614,9.91242083888056));
#509=CARTESIAN_POINT('',(-24.9122333423961,37.553331520779,3.05086868223774E-15));
#510=CARTESIAN_POINT('Origin',(0.,37.553331520779,-2.46519032881566E-31));
#511=CARTESIAN_POINT('Origin',(0.,37.553331520779,-2.46519032881566E-31));
#512=CARTESIAN_POINT('Origin',(0.,0.,0.));
#513=CARTESIAN_POINT('',(25.1,0.,0.));
#514=CARTESIAN_POINT('',(-25.1,-2.9105931852585E-33,3.07386346585986E-15));
#515=CARTESIAN_POINT('Origin',(0.,0.,0.));
#516=CARTESIAN_POINT('Origin',(0.,0.,0.));
#517=CARTESIAN_POINT('',(-25.1,0.,3.07386346585986E-15));
#518=CARTESIAN_POINT('Origin',(0.,100.4,0.));
#519=CARTESIAN_POINT('',(-14.3,100.4,1.75124492278072E-15));
#520=CARTESIAN_POINT('Origin',(0.,0.,0.));
#521=CARTESIAN_POINT('',(-25.1,0.,-3.07386346585986E-15));
#522=UNCERTAINTY_MEASURE_WITH_UNIT(LENGTH_MEASURE(0.01),#526,
'DISTANCE_ACCURACY_VALUE',
'Maximum model space distance between geometric entities at asserted c
onnectivities');
#523=UNCERTAINTY_MEASURE_WITH_UNIT(LENGTH_MEASURE(0.01),#526,
'DISTANCE_ACCURACY_VALUE',
'Maximum model space distance between geometric entities at asserted c
onnectivities');
#524=(
GEOMETRIC_REPRESENTATION_CONTEXT(3)
GLOBAL_UNCERTAINTY_ASSIGNED_CONTEXT((#522))
GLOBAL_UNIT_ASSIGNED_CONTEXT((#526,#528,#529))
REPRESENTATION_CONTEXT('','3D')
);
#525=(
GEOMETRIC_REPRESENTATION_CONTEXT(3)
GLOBAL_UNCERTAINTY_ASSIGNED_CONTEXT((#523))
GLOBAL_UNIT_ASSIGNED_CONTEXT((#526,#528,#529))
REPRESENTATION_CONTEXT('','3D')
);
#526=(
LENGTH_UNIT()
NAMED_UNIT(*)
SI_UNIT(.MILLI.,.METRE.)
);
#527=(
LENGTH_UNIT()
NAMED_UNIT(*)
SI_UNIT($,.METRE.)
);
#528=(
NAMED_UNIT(*)
PLANE_ANGLE_UNIT()
SI_UNIT($,.RADIAN.)
);
#529=(
NAMED_UNIT(*)
SI_UNIT($,.STERADIAN.)
SOLID_ANGLE_UNIT()
);
#530=SHAPE_DEFINITION_REPRESENTATION(#531,#532);
#531=PRODUCT_DEFINITION_SHAPE('',$,#534);
#532=SHAPE_REPRESENTATION('',(#262),#524);
#533=PRODUCT_DEFINITION_CONTEXT('part definition',#538,'design');
#534=PRODUCT_DEFINITION('Lil_adapter v1','Lil_adapter v1 v1',#535,#533);
#535=PRODUCT_DEFINITION_FORMATION('',$,#540);
#536=PRODUCT_RELATED_PRODUCT_CATEGORY('Lil_adapter v1 v1',
'Lil_adapter v1 v1',(#540));
#537=APPLICATION_PROTOCOL_DEFINITION('international standard',
'automotive_design',2009,#538);
#538=APPLICATION_CONTEXT(
'Core Data for Automotive Mechanical Design Process');
#539=PRODUCT_CONTEXT('part definition',#538,'mechanical');
#540=PRODUCT('Lil_adapter v1','Lil_adapter v1 v1',$,(#539));
#541=PRESENTATION_STYLE_ASSIGNMENT((#542));
#542=SURFACE_STYLE_USAGE(.BOTH.,#543);
#543=SURFACE_SIDE_STYLE('',(#544));
#544=SURFACE_STYLE_FILL_AREA(#545);
#545=FILL_AREA_STYLE('Steel - Satin',(#546));
#546=FILL_AREA_STYLE_COLOUR('Steel - Satin',#547);
#547=COLOUR_RGB('Steel - Satin',0.627450980392157,0.627450980392157,0.627450980392157);
ENDSEC;
END-ISO-10303-21;
