(module JOYSTICK (layer F.Cu) (tedit 5F9C0BC0)
  (descr "THUMB JOYSTICK")
  (tags "THUMB JOYSTICK")
  (attr virtual)
  (fp_text reference >NAME (at -13.335 0 90) (layer F.SilkS)
    (effects (font (size 0.6096 0.6096) (thickness 0.127)))
  )
  (fp_text value >VALUE (at 13.589 0 90) (layer F.SilkS)
    (effects (font (size 0.6096 0.6096) (thickness 0.127)))
  )
  (fp_line (start 5.588 -13.97) (end -5.588 -13.97) (layer F.SilkS) (width 0.2032))
  (fp_line (start 4.826 11.43) (end -4.826 11.43) (layer F.SilkS) (width 0.2032))
  (fp_line (start 4.826 11.43) (end 4.826 8.89) (layer F.SilkS) (width 0.2032))
  (fp_line (start -4.826 11.43) (end -4.826 8.89) (layer F.SilkS) (width 0.2032))
  (fp_line (start 4.826 8.89) (end 7.62 8.89) (layer F.SilkS) (width 0.2032))
  (fp_line (start -4.826 8.89) (end -7.62 8.89) (layer F.SilkS) (width 0.2032))
  (fp_line (start 9.525 -4.064) (end 9.525 4.064) (layer F.SilkS) (width 0.2032))
  (fp_line (start 7.62 -4.064) (end 7.62 -6.985) (layer F.SilkS) (width 0.2032))
  (fp_line (start 7.62 4.064) (end 7.62 8.89) (layer F.SilkS) (width 0.2032))
  (fp_line (start 7.62 -4.064) (end 9.525 -4.064) (layer F.SilkS) (width 0.2032))
  (fp_line (start 7.62 4.064) (end 9.525 4.064) (layer F.SilkS) (width 0.2032))
  (fp_line (start 7.62 -6.985) (end 5.588 -6.985) (layer F.SilkS) (width 0.2032))
  (fp_line (start -5.588 -6.985) (end -7.62 -6.985) (layer F.SilkS) (width 0.2032))
  (fp_line (start 5.588 -13.97) (end 5.588 -6.985) (layer F.SilkS) (width 0.2032))
  (fp_line (start -5.588 -13.97) (end -5.588 -6.985) (layer F.SilkS) (width 0.2032))
  (fp_line (start -7.62 -4.826) (end -11.176 -4.826) (layer F.SilkS) (width 0.2032))
  (fp_line (start -7.62 4.826) (end -11.176 4.826) (layer F.SilkS) (width 0.2032))
  (fp_line (start -11.176 -4.826) (end -11.176 4.826) (layer F.SilkS) (width 0.2032))
  (fp_line (start -7.62 -4.826) (end -7.62 -6.985) (layer F.SilkS) (width 0.2032))
  (fp_line (start -7.62 4.826) (end -7.62 8.89) (layer F.SilkS) (width 0.2032))
  (fp_line (start -1.905 -7.62) (end -0.635 -7.62) (layer Dwgs.User) (width 0.2032))
  (fp_line (start -0.635 -7.62) (end 0.635 -8.255) (layer Dwgs.User) (width 0.2032))
  (fp_line (start 0.635 -7.62) (end 1.905 -7.62) (layer Dwgs.User) (width 0.2032))
  (fp_circle (center 0 0) (end 0 -0.635) (layer F.SilkS) (width 0.2032))
  (fp_circle (center 0 0) (end 0 -12.7) (layer Dwgs.User) (width 0.2032))
  (pad B1A thru_hole circle (at -3.175 -12.7) (size 1.778 1.778) (drill 0.89916) (layers *.Cu *.Mask)
    (solder_mask_margin 0.1016))
  (pad B1B thru_hole circle (at 3.175 -12.7) (size 1.778 1.778) (drill 0.89916) (layers *.Cu *.Mask)
    (solder_mask_margin 0.1016))
  (pad B2A thru_hole circle (at -3.175 -7.62) (size 1.778 1.778) (drill 0.89916) (layers *.Cu *.Mask)
    (solder_mask_margin 0.1016))
  (pad B2B thru_hole circle (at 3.175 -7.62) (size 1.778 1.778) (drill 0.89916) (layers *.Cu *.Mask)
    (solder_mask_margin 0.1016))
  (pad H1 thru_hole circle (at -2.54 10.16) (size 1.778 1.778) (drill 0.889) (layers *.Cu *.Mask)
    (solder_mask_margin 0.1016))
  (pad H2 thru_hole circle (at 0 10.16) (size 1.778 1.778) (drill 0.889) (layers *.Cu *.Mask)
    (solder_mask_margin 0.1016))
  (pad H3 thru_hole circle (at 2.54 10.16) (size 1.778 1.778) (drill 0.889) (layers *.Cu *.Mask)
    (solder_mask_margin 0.1016))
  (pad MOUN thru_hole circle (at -7.62 -6.6675) (size 2.286 2.286) (drill 1.397) (layers *.Cu *.Mask)
    (solder_mask_margin 0.1016))
  (pad MOUN thru_hole circle (at -7.62 6.6675) (size 2.286 2.286) (drill 1.397) (layers *.Cu *.Mask)
    (solder_mask_margin 0.1016))
  (pad MOUN thru_hole circle (at 7.62 6.6675) (size 2.286 2.286) (drill 1.397) (layers *.Cu *.Mask)
    (solder_mask_margin 0.1016))
  (pad MOUN thru_hole circle (at 7.62 -6.6675) (size 2.286 2.286) (drill 1.397) (layers *.Cu *.Mask)
    (solder_mask_margin 0.1016))
  (pad V1 thru_hole circle (at -10.16 -2.54) (size 1.778 1.778) (drill 0.889) (layers *.Cu *.Mask)
    (solder_mask_margin 0.1016))
  (pad V2 thru_hole circle (at -10.16 0) (size 1.778 1.778) (drill 0.889) (layers *.Cu *.Mask)
    (solder_mask_margin 0.1016))
  (pad V3 thru_hole circle (at -10.16 2.54) (size 1.778 1.778) (drill 0.889) (layers *.Cu *.Mask)
    (solder_mask_margin 0.1016))
  (model ./9032a.step
    (at (xyz 0 0 0))
    (scale (xyz 1 1 1))
    (rotate (xyz 0 0 0))
  )
)
